…
```r
gsp_counties$alabama$blount
#> [1] "{\"type\":\"Feature\",\"properties\":{\"GEO_ID\":\"0500000US01009\",\"STATE\":\"01\",\"COUNTY\":\"009\",\"NAME\":\"Blount\",\"LSAD\":\"County\",\"CENSUSAREA\":644.776},\"geometry\":{\"type\":\"Polygon\",\"coordinates\":[[[-86.577799,33.765316],[-86.759144,33.840617],[-86.953664,33.815297],[-86.954305,33.844862],[-86.96296,33.844865],[-86.963358,33.858221],[-86.924387,33.909222],[-86.793914,33.952059],[-86.685365,34.05914],[-86.692061,34.092654],[-86.599632,34.119914],[-86.514881,34.25437],[-86.45302,34.259317],[-86.303516,34.099073],[-86.332723,33.986109],[-86.370152,33.93977],[-86.325622,33.940147],[-86.377532,33.861706],[-86.577528,33.801977],[-86.577799,33.765316]]]}}"
```

`gsp_counties_df` is a data.frame with the GeoJSON but also with metadata for states and counties, which
can make it easier to pick out the GeoJSON you want. (if you load `tibble` you get a brief data.frame 
output)


```r
library(tibble)
gsp_counties_df
#> # A tibble: 3,221 x 5
#>    state_code state  county_code county  geojson                          
#>    <chr>      <chr>  <chr>       <chr>   <chr>                            
#>  1 01         Alaba… 001         Autauga "{\"type\":\"Feature\",\"propert…
#>  2 01         Alaba… 009         Blount  "{\"type\":\"Feature\",\"propert…
#>  3 01         Alaba… 017         Chambe… "{\"type\":\"Feature\",\"propert…
#>  4 01         Alaba… 021         Chilton "{\"type\":\"Feature\",\"propert…
#>  5 01         Alaba… 033         Colbert "{\"type\":\"Feature\",\"propert…
#>  6 01         Alaba… 045         Dale    "{\"type\":\"Feature\",\"propert…
#>  7 01         Alaba… 051         Elmore  "{\"type\":\"Feature\",\"propert…
#>  8 01         Alaba… 065         Hale    "{\"type\":\"Feature\",\"propert…
#>  9 01         Alaba… 079         Lawren… "{\"type\":\"Feature\",\"propert…
#> 10 01         Alaba… 083         Limest… "{\"type\":\"Feature\",\"propert…
#> # ... with 3,211 more rows
```
…
